<svg id="arrow_right" xmlns="http://www.w3.org/2000/svg" width="16.44" height="11.438" viewBox="0 0 16.44 11.438">
  <defs>
    <style>
      .cls-1 {
        fill: none;
        stroke: #2b994c;
        stroke-width: 2px;
        fill-rule: evenodd;
      }
    </style>
  </defs>
  <path class="cls-1" d="M1357.02,290l5,5-5,5" transform="translate(-1347 -289.281)"/>
  <path class="cls-1" d="M1361,295h-14" transform="translate(-1347 -289.281)"/>
</svg>
