<svg xmlns="http://www.w3.org/2000/svg" width="11" height="10" viewBox="0 0 11 10">
  <defs>
    <style>
      .cls-1 {
        fill: #39393c;
        fill-rule: evenodd;
      }
    </style>
  </defs>
  <path id="program_cal_ico" class="cls-1" d="M5375,820h-9a1,1,0,0,1-1-1v-7a1,1,0,0,1,1-1h1v-1h2v1h3v-1h2v1h1a1,1,0,0,1,1,1v7A1,1,0,0,1,5375,820Zm-5-7h-3v2h3v-2Zm0,3h-3v2h3v-2Zm4-3h-3v2h3v-2Zm0,3h-3v2h3v-2Z" transform="translate(-5365 -810)"/>
</svg>
