<svg id="checkbox" xmlns="http://www.w3.org/2000/svg" width="18.562" height="16" viewBox="0 0 18.562 16">
<defs>
    <style>
      .cls-1 {
        fill: #2b994c;
      }

      .cls-2 {
        fill: none;
        stroke: #fff;
        stroke-linecap: round;
        stroke-linejoin: round;
        stroke-width: 3.1px;
        fill-rule: evenodd;
      }
    </style>
  </defs>
  <path class="cls-2" d="M360,4065l4,4,9-9" transform="translate(-356 -4058)"/>
</svg>
