<svg id="phone_ico" xmlns="http://www.w3.org/2000/svg" width="16" height="27" viewBox="0 0 16 27">
  <metadata><?xpacket begin="﻿" id="W5M0MpCehiHzreSzNTczkc9d"?>
<x:xmpmeta xmlns:x="adobe:ns:meta/" x:xmptk="Adobe XMP Core 5.6-c140 79.160451, 2017/05/06-01:08:21        ">
   <rdf:RDF xmlns:rdf="http://www.w3.org/1999/02/22-rdf-syntax-ns#">
      <rdf:Description rdf:about=""/>
   </rdf:RDF>
</x:xmpmeta>
                                                                                                    
                                                                                                    
                                                                                                    
                                                                                                    
                                                                                                    
                                                                                                    
                                                                                                    
                                                                                                    
                                                                                                    
                                                                                                    
                                                                                                    
                                                                                                    
                                                                                                    
                                                                                                    
                                                                                                    
                                                                                                    
                                                                                                    
                                                                                                    
                                                                                                    
                                                                                                    
                           
<?xpacket end="w"?></metadata>
<defs>
    <style>
      .cls-1 {
        fill: #39393c;
        fill-rule: evenodd;
      }

      .cls-2 {
        fill: #f8b953;
      }
    </style>
  </defs>
  <path id="mobile-phone-6" class="cls-1" d="M257,471h-1.973v4.023H243.286a2.268,2.268,0,0,0-2.286,2.25V495.75a2.268,2.268,0,0,0,2.286,2.25h11.428A2.268,2.268,0,0,0,257,495.75V471Zm-1.973,6.023V496H243V477.023h12.023Z" transform="translate(-241 -471)"/>
  <rect class="cls-2" x="4" y="8" width="8" height="7"/>
</svg>
