<svg id="pptx" xmlns="http://www.w3.org/2000/svg" width="57" height="75" viewBox="0 0 57 75">
  <metadata><?xpacket begin="﻿" id="W5M0MpCehiHzreSzNTczkc9d"?>
<x:xmpmeta xmlns:x="adobe:ns:meta/" x:xmptk="Adobe XMP Core 5.6-c140 79.160451, 2017/05/06-01:08:21        ">
   <rdf:RDF xmlns:rdf="http://www.w3.org/1999/02/22-rdf-syntax-ns#">
      <rdf:Description rdf:about=""/>
   </rdf:RDF>
</x:xmpmeta>
                                                                                                    
                                                                                                    
                                                                                                    
                                                                                                    
                                                                                                    
                                                                                                    
                                                                                                    
                                                                                                    
                                                                                                    
                                                                                                    
                                                                                                    
                                                                                                    
                                                                                                    
                                                                                                    
                                                                                                    
                                                                                                    
                                                                                                    
                                                                                                    
                                                                                                    
                                                                                                    
                           
<?xpacket end="w"?></metadata>
<defs>
    <style>
      .cls-1 {
        fill: #e0d9d1;
      }

      .cls-1, .cls-2, .cls-3, .cls-5 {
        fill-rule: evenodd;
      }

      .cls-2 {
        fill: #d1c5ba;
      }

      .cls-3, .cls-6 {
        fill: #bfb2aa;
      }

      .cls-4, .cls-5 {
        fill: none;
        stroke: #bfb2aa;
        stroke-width: 3px;
      }
    </style>
  </defs>
  <path class="cls-1" d="M0,75V0H46.5L57,10.5V75H0Z"/>
  <path class="cls-2" d="M46,0L57,11H46V0Z"/>
  <path id="PPTX-2" data-name="PPTX" class="cls-3" d="M17.36,69V66.508H19a2.259,2.259,0,0,0,0-4.515H15.985v7H17.36Zm1.461-3.8H17.36v-1.89h1.461A0.945,0.945,0,1,1,18.821,65.2ZM23.882,69V66.508h1.645a2.259,2.259,0,0,0,0-4.515H22.508v7h1.374Zm1.461-3.8H23.882v-1.89h1.461A0.945,0.945,0,1,1,25.344,65.2ZM31.9,69V63.305h1.878V61.993H28.634v1.313h1.887V69H31.9ZM41,69l-2.342-3.6,2.2-3.4H39.2L37.74,64.387,36.26,61.993H34.624l2.2,3.413L34.479,69h1.636l1.626-2.562L39.356,69H41Z"/>
  <circle class="cls-4" cx="28.5" cy="30.5" r="13.063"/>
  <path class="cls-5" d="M28.5,18.25v12.5l9,8.25"/>
  <path class="cls-5" d="M28.5,30.75l9.75-6"/>
  <rect class="cls-6" x="11" y="48" width="35" height="3"/>
</svg>
