<svg xmlns="http://www.w3.org/2000/svg" width="29" height="31" viewBox="0 0 29 31">
  <defs>
    <style>
      .cls-1 {
        fill-rule: evenodd;
        opacity: 0.4;
      }
    </style>
  </defs>
  <path id="Forma_1" data-name="Forma 1" class="cls-1" d="M642.5,2862.81h-0.445c-0.512,5.49-3.9,9.7-6.529,12.69,2.632,2.99,6.017,7.2,6.529,12.69H642.5a1.412,1.412,0,1,1,0,2.82h-26a1.412,1.412,0,1,1,0-2.82h0.443c0.512-5.49,3.9-9.7,6.53-12.69-2.633-2.99-6.018-7.2-6.529-12.69H616.5a1.412,1.412,0,1,1,0-2.82h26A1.412,1.412,0,1,1,642.5,2862.81Zm-22.583.01c0.559,4.95,3.957,8.77,6.494,11.62l0.135,0.15a1.355,1.355,0,0,1,0,1.82l-0.135.15c-2.539,2.86-5.935,6.67-6.494,11.63h19.16c-0.559-4.96-3.955-8.77-6.493-11.63l-0.136-.15a1.357,1.357,0,0,1,0-1.82l0.135-.15c2.537-2.85,5.935-6.67,6.494-11.62h-19.16Zm10.323,11.97a0.744,0.744,0,0,1-1.486,0,3.391,3.391,0,0,0-.872-2.25,14.52,14.52,0,0,1-2.774-4.52,0.692,0.692,0,0,1,.094-0.65,0.771,0.771,0,0,1,.608-0.29h7.374a0.767,0.767,0,0,1,.606.29,0.689,0.689,0,0,1,.094.65,14.464,14.464,0,0,1-2.774,4.52A3.389,3.389,0,0,0,630.242,2874.79Zm-1.486,2.83a0.744,0.744,0,0,1,1.486,0,3.638,3.638,0,0,0,1.8,2.84,18.9,18.9,0,0,1,5.53,5.62,0.668,0.668,0,0,1-.006.7,0.743,0.743,0,0,1-.641.35h-14.86a0.742,0.742,0,0,1-.641-0.35,0.668,0.668,0,0,1-.006-0.7,18.9,18.9,0,0,1,5.53-5.62A3.64,3.64,0,0,0,628.756,2877.62Z" transform="translate(-615 -2860)"/>
</svg>
