<svg xmlns="http://www.w3.org/2000/svg" width="28" height="21" viewBox="0 0 28 21">
  <defs>
    <style>
      .cls-1 {
        fill: #299a4c;
        fill-rule: evenodd;
      }
    </style>
  </defs>
  <path id="humb" class="cls-1" d="M272,29h28v3H272V29Zm0,9h28v3H272V38Zm0,9h28v3H272V47Z" transform="translate(-272 -29)"/>
</svg>
