<svg xmlns="http://www.w3.org/2000/svg" width="428" height="220" viewBox="0 0 428 220">
  <g fill="none" fill-rule="evenodd">
    <path fill="#62696e" d="M234.242,72.2834423 C232.476,73.1024423 229.808,73.7254423 226.408,73.7254423 C218.577,73.7254423 213.716,70.8404423 213.716,64.1424423 C213.716,54.6614423 222.069,52.6054423 234.24,51.4604423 L234.242,72.2834423 Z M225.372,23.9554423 C214.346,23.9554423 205.802,26.3264423 201.263,28.0664423 L204.975,36.9354423 C209.199,35.1824423 215.995,33.6374423 222.069,33.6374423 C229.385,33.6374423 234.241,35.5044423 234.241,41.6754423 L234.243,44.4644423 C214.347,46.1064423 197.232,50.0224423 197.232,64.7604423 C197.232,76.0964423 206.713,82.3824423 225.372,82.3824423 C236.4,82.3824423 245.268,80.7334423 250.627,78.2554423 L250.629,44.3494423 C250.627,29.4114423 240,23.9554423 225.372,23.9554423 Z M330.066,28.0654423 L330.066,80.9454423 L330.111,80.9454423 C331.136,80.9334423 347.299,80.6354423 347.4,65.6064423 C347.402,64.8234423 347.441,64.1414423 347.474,63.5114423 L347.474,34.9764423 C350.89,33.5404423 357.072,33.6374423 361.812,35.1824423 L365.099,24.3674423 C363.351,24.1564423 359.951,23.9554423 357.173,23.9554423 C344.711,23.9554423 336.461,25.4954423 330.066,28.0654423 Z M300.186,71.2514423 C298.748,71.9674423 296.16,72.4834423 293.286,72.4834423 C283.176,72.4834423 278.862,65.5894423 278.862,52.9024423 C278.864,41.3764423 283.392,33.0184423 294.092,33.0184423 C296.365,33.0184423 298.431,33.2354423 300.185,33.6364423 L300.185,71.2514423 L300.186,71.2514423 Z M300.186,11.4454423 L300.186,25.2954423 C297.925,24.7744423 294.207,24.2584423 289.981,24.2584423 C272.984,24.2584423 261.126,35.6924423 261.126,53.6244423 C261.126,72.5924423 272.869,82.3824423 292.873,82.3824423 C303.895,82.3824423 311.641,80.8374423 317.498,78.2554423 L317.5,0.273442256 C316.977,0.273442288 300.598,0.263442288 300.186,11.4454423 Z M169.831,38.5654423 L169.831,70.4274423 C167.867,71.2514423 164.774,71.8694423 160.966,71.8694423 C154.058,71.8694423 151.166,68.1544423 151.166,63.6254423 L151.167,25.3854423 C151.167,25.3854423 134.018,25.5054423 133.76,38.5654423 L133.761,62.6984423 C133.761,75.7804423 142.303,82.3814423 160.549,82.3814423 C172.504,82.3814423 181.784,80.6354423 187.24,78.2544423 L187.242,25.3854423 C187.242,25.3864423 170.083,25.5064423 169.831,38.5654423 Z M24.121,72.9074423 C21.023,72.9074423 18.858,72.4844423 17.319,71.7684423 L17.319,34.5634423 C19.385,33.6364423 21.841,33.2354423 25.145,33.2354423 C34.932,33.2354423 38.645,41.4624423 38.645,52.6044423 C38.646,64.8694423 33.915,72.9074423 24.121,72.9074423 Z M30.191,24.1564423 C24.321,24.1564423 20.307,25.1804423 17.319,26.3264423 L17.319,15.7104423 C17.376,-1.65255771 0,0.0454422882 0,0.0454422882 L0,78.2544423 C4.339,80.6354423 12.262,82.3814423 23.182,82.3814423 C44.526,82.3814423 56.377,70.9544423 56.377,51.6704423 C56.378,35.2864423 45.659,24.1564423 30.191,24.1564423 Z M103.984,71.3444423 C102.22,72.1744423 99.454,72.7924423 96.363,72.7924423 C87.284,72.7924423 82.542,65.8994423 82.542,53.6244423 C82.544,40.3354423 87.488,33.0194423 97.072,33.0194423 C100.056,33.0194423 102.34,33.5404423 103.982,34.2554423 L103.984,71.3444423 Z M64.822,54.8724423 C64.822,71.3444423 75.849,82.1824423 91.409,82.1824423 C96.661,82.1824423 101.001,81.3514423 103.982,80.1104423 L103.984,88.9564423 C103.984,103.113442 121.187,103.092442 121.187,103.092442 L121.188,28.0674423 C116.552,25.8064423 108.512,23.9564423 98,23.9564423 C74.292,23.9554423 64.821,37.7594423 64.822,54.8724423 Z M397.773,71.7684423 C388.916,71.7684423 386.121,63.2144423 386.121,53.0174423 C386.121,42.8094423 388.807,33.8484423 397.773,33.8484423 C406.728,33.8484423 409.308,42.8094423 409.308,53.0174423 C409.309,63.2144423 406.727,71.7684423 397.773,71.7684423 Z M397.773,23.9554423 C378.615,23.9554423 368.408,36.2084423 368.408,53.1144423 C368.408,70.0154423 378.615,82.3824423 397.773,82.3824423 C416.947,82.3824423 427.041,70.0154423 427.041,53.1144423 C427.041,36.2084423 416.945,23.9554423 397.773,23.9554423 Z"/>
    <path fill="#2b994c" d="M234.242,188.283442 C232.476,189.102442 229.808,189.725442 226.408,189.725442 C218.577,189.725442 213.716,186.840442 213.716,180.142442 C213.716,170.661442 222.069,168.605442 234.24,167.460442 L234.242,188.283442 Z M225.372,139.955442 C214.346,139.955442 205.802,142.326442 201.263,144.066442 L204.975,152.935442 C209.199,151.182442 215.995,149.637442 222.069,149.637442 C229.385,149.637442 234.241,151.504442 234.241,157.675442 L234.243,160.464442 C214.347,162.106442 197.232,166.022442 197.232,180.760442 C197.232,192.096442 206.713,198.382442 225.372,198.382442 C236.4,198.382442 245.268,196.733442 250.627,194.255442 L250.629,160.349442 C250.627,145.411442 240,139.955442 225.372,139.955442 Z M330.066,144.065442 L330.066,196.945442 L330.111,196.945442 C331.136,196.933442 347.299,196.635442 347.4,181.606442 C347.402,180.823442 347.441,180.141442 347.474,179.511442 L347.474,150.976442 C350.89,149.540442 357.072,149.637442 361.812,151.182442 L365.099,140.367442 C363.351,140.156442 359.951,139.955442 357.173,139.955442 C344.711,139.955442 336.461,141.495442 330.066,144.065442 Z M300.186,187.251442 C298.748,187.967442 296.16,188.483442 293.286,188.483442 C283.176,188.483442 278.862,181.589442 278.862,168.902442 C278.864,157.376442 283.392,149.018442 294.092,149.018442 C296.365,149.018442 298.431,149.235442 300.185,149.636442 L300.185,187.251442 L300.186,187.251442 Z M300.186,127.445442 L300.186,141.295442 C297.925,140.774442 294.207,140.258442 289.981,140.258442 C272.984,140.258442 261.126,151.692442 261.126,169.624442 C261.126,188.592442 272.869,198.382442 292.873,198.382442 C303.895,198.382442 311.641,196.837442 317.498,194.255442 L317.5,116.273442 C316.977,116.273442 300.598,116.263442 300.186,127.445442 Z M169.831,154.565442 L169.831,186.427442 C167.867,187.251442 164.774,187.869442 160.966,187.869442 C154.058,187.869442 151.166,184.154442 151.166,179.625442 L151.167,141.385442 C151.167,141.385442 134.018,141.505442 133.76,154.565442 L133.761,178.698442 C133.761,191.780442 142.303,198.381442 160.549,198.381442 C172.504,198.381442 181.784,196.635442 187.24,194.254442 L187.242,141.385442 C187.242,141.386442 170.083,141.506442 169.831,154.565442 Z M24.121,188.907442 C21.023,188.907442 18.858,188.484442 17.319,187.768442 L17.319,150.563442 C19.385,149.636442 21.841,149.235442 25.145,149.235442 C34.932,149.235442 38.645,157.462442 38.645,168.604442 C38.646,180.869442 33.915,188.907442 24.121,188.907442 Z M30.191,140.156442 C24.321,140.156442 20.307,141.180442 17.319,142.326442 L17.319,131.710442 C17.376,114.347442 0,116.045442 0,116.045442 L0,194.254442 C4.339,196.635442 12.262,198.381442 23.182,198.381442 C44.526,198.381442 56.377,186.954442 56.377,167.670442 C56.378,151.286442 45.659,140.156442 30.191,140.156442 Z M103.984,187.344442 C102.22,188.174442 99.454,188.792442 96.363,188.792442 C87.284,188.792442 82.542,181.899442 82.542,169.624442 C82.544,156.335442 87.488,149.019442 97.072,149.019442 C100.056,149.019442 102.34,149.540442 103.982,150.255442 L103.984,187.344442 Z M64.822,170.872442 C64.822,187.344442 75.849,198.182442 91.409,198.182442 C96.661,198.182442 101.001,197.351442 103.982,196.110442 L103.984,204.956442 C103.984,219.113442 121.187,219.092442 121.187,219.092442 L121.188,144.067442 C116.552,141.806442 108.512,139.956442 98,139.956442 C74.292,139.955442 64.821,153.759442 64.822,170.872442 Z M397.773,187.768442 C388.916,187.768442 386.121,179.214442 386.121,169.017442 C386.121,158.809442 388.807,149.848442 397.773,149.848442 C406.728,149.848442 409.308,158.809442 409.308,169.017442 C409.309,179.214442 406.727,187.768442 397.773,187.768442 Z M397.773,139.955442 C378.615,139.955442 368.408,152.208442 368.408,169.114442 C368.408,186.015442 378.615,198.382442 397.773,198.382442 C416.947,198.382442 427.041,186.015442 427.041,169.114442 C427.041,152.208442 416.945,139.955442 397.773,139.955442 Z"/>
  </g>
</svg>
