<svg id="slider_arr_left" xmlns="http://www.w3.org/2000/svg" xmlns:xlink="http://www.w3.org/1999/xlink"  width="30" height="56" viewBox="0 0 30 56" fill="none">
<defs>
    <style>
      .cls-1 {
        fill: none;
        stroke: #fff;
        stroke-linecap: round;
        stroke-linejoin: round;
        stroke-width: 2px;
        fill-rule: evenodd;
      }
      .cls-2 {
        fill: none;
        stroke: #2b994c;
        stroke-linecap: round;
        stroke-linejoin: round;
        stroke-width: 2px;
        fill-rule: evenodd;
      }
    </style>
  </defs>
  <path id="icon_1" d="M38,415l-7,7,7,7" transform="translate(-30 -414)"/>
  <path id="icon_2" d="M32,422H59" transform="translate(-30 -414)"/>
  <use xlink:href="#icon_1" x="0" y="0" class="cls-1"/>  
  <use xlink:href="#icon_2" x="0" y="0" class="cls-1"/>
  <use xlink:href="#icon_1" x="0" y="40" class="cls-2"/>  
  <use xlink:href="#icon_2" x="0" y="40" class="cls-2"/>
</svg>
