<svg id="png" xmlns="http://www.w3.org/2000/svg" width="57" height="75" viewBox="0 0 57 75">
  <metadata><?xpacket begin="﻿" id="W5M0MpCehiHzreSzNTczkc9d"?>
<x:xmpmeta xmlns:x="adobe:ns:meta/" x:xmptk="Adobe XMP Core 5.6-c140 79.160451, 2017/05/06-01:08:21        ">
   <rdf:RDF xmlns:rdf="http://www.w3.org/1999/02/22-rdf-syntax-ns#">
      <rdf:Description rdf:about=""/>
   </rdf:RDF>
</x:xmpmeta>
                                                                                                    
                                                                                                    
                                                                                                    
                                                                                                    
                                                                                                    
                                                                                                    
                                                                                                    
                                                                                                    
                                                                                                    
                                                                                                    
                                                                                                    
                                                                                                    
                                                                                                    
                                                                                                    
                                                                                                    
                                                                                                    
                                                                                                    
                                                                                                    
                                                                                                    
                                                                                                    
                           
<?xpacket end="w"?></metadata>
<defs>
    <style>
      .cls-1 {
        fill: #e0d9d1;
      }

      .cls-1, .cls-2, .cls-3 {
        fill-rule: evenodd;
      }

      .cls-2 {
        fill: #d1c5ba;
      }

      .cls-3 {
        fill: #bfb2aa;
      }
    </style>
  </defs>
  <path class="cls-1" d="M0,75V0H46.5L57,10.5V75H0Z"/>
  <path class="cls-2" d="M46,0L57,11H46V0Z"/>
  <path id="PNG-2" data-name="PNG" class="cls-3" d="M19.4,68.879V66.56h1.671a2.106,2.106,0,1,0,0-4.207H18v6.526h1.4Zm1.484-3.542H19.4V63.576h1.484A0.884,0.884,0,1,1,20.884,65.337ZM30.5,68.879V62.353H29.1v4.1l-3.038-4.1H24.629v6.526h1.4V64.623l3.126,4.256H30.5Zm4.964,0.127a3.647,3.647,0,0,0,2.792-1.233v-2.5H35.127v1.213h1.73v0.783a2.218,2.218,0,0,1-1.4.5,2.145,2.145,0,0,1,0-4.286,1.859,1.859,0,0,1,1.553.851l1.16-.626a3.069,3.069,0,0,0-2.713-1.458A3.382,3.382,0,1,0,35.462,69.006Z"/>
  <path class="cls-3" d="M11,50V48.929C11,47.81,22.8,35,25.219,35c1.157,0,4.071,3.072,5.8,4.779L29.261,43.25l3.017-2.379a0.327,0.327,0,0,0,.05.022c0.534,0,2.65-2.143,3.281-2.143C36.658,38.75,46,47.965,46,48.929V50H11ZM40,35a5,5,0,1,1,5-5A5,5,0,0,1,40,35Z"/>
</svg>
