<?xml version="1.0" encoding="iso-8859-1"?>
<!-- Generator: Adobe Illustrator 19.0.0, SVG Export Plug-In . SVG Version: 6.00 Build 0)  -->
<svg version="1.1" id="Capa_1" xmlns="http://www.w3.org/2000/svg" xmlns:xlink="http://www.w3.org/1999/xlink" x="0px" y="0px"
	 viewBox="0 0 496 496" style="enable-background:new 0 0 496 496;" width="100" height="100" xml:space="preserve">
<rect x="96" y="32" width="224" height="16"/>
<rect x="96" y="64" width="16" height="16"/>
<rect x="128" y="64" width="192" height="16"/>
<rect x="32" y="96" width="288" height="16"/>
<path d="M352,366.192v-199.44l47.24-15.144l-4.888-15.232L352,149.96V0H68.688L0,68.688V496h352V383.344l41.92,16.128l5.752-14.936
	L352,366.192z M64,27.312V64H27.312L64,27.312z M336,155.088l-66.448,21.296l4.888,15.232L336,171.888V360.04l-61.128-23.512
	l-5.752,14.936L336,377.192V480H16V80h64V16h256V155.088z"/>
<path style="fill:#F0BC5E;" d="M283.68,232.448c-2.648-9.744-6.528-19.112-11.576-27.912l6.792-21.976l-29.448-29.44l-21.976,6.784
	c-8.808-5.04-18.168-8.92-27.912-11.576L188.824,128h-41.64l-10.736,20.32c-9.752,2.656-19.112,6.536-27.912,11.576l-21.976-6.784
	l-29.448,29.44l6.792,21.976c-5.048,8.808-8.928,18.168-11.576,27.912L32,243.176v41.64l20.32,10.736
	c2.656,9.752,6.536,19.112,11.576,27.912l-6.776,21.984l29.44,29.448l21.976-6.792c8.808,5.048,18.168,8.928,27.912,11.576
	L147.176,400h41.64l10.736-20.32c9.744-2.648,19.112-6.528,27.912-11.576l21.976,6.792l29.448-29.448l-6.792-21.976
	c5.048-8.808,8.928-18.168,11.576-27.912L304,284.824v-41.64L283.68,232.448z M168,312c-26.512,0-48-21.488-48-48s21.488-48,48-48
	s48,21.488,48,48S194.512,312,168,312z"/>
<path d="M168,320c-30.872,0-56-25.128-56-56c0-30.88,25.128-56,56-56s56,25.12,56,56C224,294.872,198.872,320,168,320z M168,224
	c-22.056,0-40,17.944-40,40s17.944,40,40,40s40-17.944,40-40S190.056,224,168,224z"/>
<path d="M168,352c-48.52,0-88-39.48-88-88s39.48-88,88-88s88,39.48,88,88c0,18.288-5.552,35.824-16.072,50.704l-13.064-9.232
	C235.464,293.304,240,278.96,240,264c0-39.696-32.296-72-72-72s-72,32.304-72,72c0,39.704,32.296,72,72,72
	c18.848,0,36.68-7.24,50.192-20.384l11.16,11.472C212.832,343.16,191.04,352,168,352z"/>
<path style="fill:#F0BC5E;" d="M440,472c-30.872,0-56-25.128-56-56s25.128-56,56-56s56,25.128,56,56S470.872,472,440,472z"/>
<path d="M440,440c-13.232,0-24-10.768-24-24s10.768-24,24-24s24,10.768,24,24S453.232,440,440,440z M440,408c-4.416,0-8,3.584-8,8
	s3.584,8,8,8s8-3.584,8-8S444.416,408,440,408z"/>
<path style="fill:#F0BC5E;" d="M440,184c-30.872,0-56-25.128-56-56s25.128-56,56-56s56,25.128,56,56S470.872,184,440,184z"/>
<path d="M440,152c-13.232,0-24-10.768-24-24s10.768-24,24-24s24,10.768,24,24S453.232,152,440,152z M440,120c-4.416,0-8,3.592-8,8
	s3.584,8,8,8s8-3.592,8-8S444.416,120,440,120z"/>
<rect x="32" y="416" width="288" height="16"/>
<rect x="32" y="448" width="256" height="16"/>
<rect x="304" y="448" width="16" height="16"/>
</svg>
