<svg xmlns="http://www.w3.org/2000/svg" width="18" height="14.624" viewBox="0 0 18 14.624">
  <defs>
    <style>
      .cls-1 {
        fill: #0084b4;
        fill-rule: evenodd;
      }
    </style>
  </defs>
  <path id="tw_ico" class="cls-1" d="M990.375,289.918a7.394,7.394,0,0,1-2.121.581,3.708,3.708,0,0,0,1.624-2.043,7.389,7.389,0,0,1-2.345.9,3.7,3.7,0,0,0-6.293,3.368,10.487,10.487,0,0,1-7.612-3.858,3.7,3.7,0,0,0,1.143,4.93,3.666,3.666,0,0,1-1.672-.462A3.7,3.7,0,0,0,976.061,297a3.7,3.7,0,0,1-1.668.063,3.7,3.7,0,0,0,3.45,2.565,7.432,7.432,0,0,1-5.468,1.529,10.5,10.5,0,0,0,16.157-9.326A7.508,7.508,0,0,0,990.375,289.918Z" transform="translate(-972.375 -288.188)"/>
</svg>
