<svg xmlns="http://www.w3.org/2000/svg" width="20" height="11.781" viewBox="0 0 20 11.781">
  <defs>
    <style>
      .cls-1 {
        fill: #45668e;
        fill-rule: evenodd;
      }
    </style>
  </defs>
  <path id="vk_ico" class="cls-1" d="M881.807,298.266c-1.4-1.316-1.47-1.346-.261-2.93,1.5-1.965,3.464-4.483,1.728-4.483h-3.316c-0.643,0-.689.365-0.918,0.91-0.828,1.972-2.4,4.527-3,4.136-0.626-.407-0.339-2.021-0.291-4.42a1.023,1.023,0,0,0-.95-1.294,6.605,6.605,0,0,0-1.507-.173c-1.893,0-3.2.8-2.457,0.941,1.309,0.246,1.183,3.1.878,4.336-0.531,2.148-2.528-1.7-3.36-3.617a0.92,0.92,0,0,0-.979-0.819h-2.711c-0.409,0-.655.134-0.655,0.434a29.128,29.128,0,0,0,4.819,8.21c2.295,2.5,4.564,2.275,6.142,2.275a0.671,0.671,0,0,0,.709-0.769c-0.026-1.611.595-2.478,1.715-1.347,1.239,1.25,1.5,2.116,3,2.116h2.665c0.673,0,.938-0.219.938-0.562C883.994,300.485,882.81,299.205,881.807,298.266Z" transform="translate(-864 -290)"/>
</svg>
