<svg xmlns="http://www.w3.org/2000/svg" width="20" height="60" xmlns:xlink="http://www.w3.org/1999/xlink"  viewBox="0 0 20 60" fill="none">
<defs>
    <style>
      .cls-1 { fill: #ccc; fill-rule: evenodd; }
      .cls-2 { fill: #3db0c1; fill-rule: evenodd; }
    </style>
  </defs>
  <path id="cross" d="M1021.14,281l8.62,8.621a0.8,0.8,0,0,1,0,1.142,0.784,0.784,0,0,1-.57.237,0.8,0.8,0,0,1-.57-0.237l-8.62-8.621-8.62,8.621a0.817,0.817,0,0,1-.57.237,0.784,0.784,0,0,1-.57-0.237,0.8,0.8,0,0,1,0-1.142l8.62-8.621-8.62-8.621a0.807,0.807,0,1,1,1.14-1.143l8.62,8.621,8.62-8.621a0.807,0.807,0,1,1,1.14,1.143Z" transform="translate(-1010 -271)"/>
  <use xlink:href="#cross" x="0" y="0" class="cls-1"/>  
  <use xlink:href="#cross" x="0" y="40" class="cls-2"/>
</svg>
